3 Modules – The metacheck Book
…
List all sentences that describe an effect as ‘marginally significant’.

marginal <- module_run(paper, "marginal")

marginal # print table

Marginal Significance: You described 0 effects with terms related to ‘marginally significant’.

Let’s check how many are in the full set.

marginal_ps <- module_run(psychsci, "marginal")

marginal_ps$table # print table

#> # A tibble: 102 × 9
#>    text    text_id paragraph_id section_id page_number formatted paper_id header
#>    <chr>     <int>        <int>      <int>       <int> <chr>     <chr>    <chr> 
#>  1 Althou…     128           29         15          NA "Althoug… 0956797… Detai…
#>  2 A marg…     139           32         18          NA "A margi… 0956797… Postt…
#>  3 When w…     150           35         19          NA  <NA>     0956797… The e…
#>  4 In tha…     154           36         20          NA "In that… 0956797… Condi…
#>  5 The Co…     110           22          7          NA "The Con… 0956797… Resul…
#>  6 The tw…     113           24          6          NA "The two… 0956797… Resul…
#>  7 An omn…     186           41         14          NA  <NA>     0956797… Resul…
#>  8 Furthe…     244           63         28          NA  <NA>     0956797… <NA>  
#>  9 The da…     259           65         30          NA "The dag… 0956797… Fig 5.
#> 10 Given …     166           38         19          NA  <NA>     0956797… Autho…
#> # ℹ 92 more rows
#> # ℹ 1 more variable: section_type <chr>
…
